Handling incidence objects
…
# rename preserve class
x <-
  inci %>%
  rename(left_bin = bin_date)
identical(class(x), class(inci))
#> [1] TRUE

# select returns a tibble unless all date, count and group variables are preserved
inci %>% select(-1)
#> Note: incidence2 class dropped in returned object
#> # A tibble: 24 x 4
#>    week_group hospital                                     gender count
#>    <aweek>    <fct>                                        <fct>  <int>
#>  1 2014-W21   Connaught Hospital                           f          4
#>  2 2014-W21   Military Hospital                            f          2
#>  3 2014-W21   other                                        f          1
#>  4 2014-W21   Princess Christian Maternity Hospital (PCMH) f          3
#>  5 2014-W21   Rokupa Hospital                              f          1
#>  6 2014-W21   <NA>                                         f          4
#>  7 2014-W21   Connaught Hospital                           m          4
#>  8 2014-W21   Military Hospital                            m          2
#>  9 2014-W21   other                                        m          3
#> 10 2014-W21   Princess Christian Maternity Hospital (PCMH) m          2
#> # … with 14 more rows
…
# Adding rows with dates that are not multiples of 2 weeks drops class
inci %>%
  slice_head(n = 2) %>%
  mutate(bin_date = bin_date + 30) %>%
  bind_rows(inci)
#> Note: incidence2 class dropped in returned object
#> # A tibble: 26 x 5
#>    bin_date   week_group hospital                                   gender count
#>    <date>     <aweek>    <fct>                                      <fct>  <int>
#>  1 2014-06-18 2014-W21-1 Connaught Hospital                         f          4
#>  2 2014-06-18 2014-W21-1 Military Hospital                          f          2
#>  3 2014-05-19 2014-W21-1 Connaught Hospital                         f          4
#>  4 2014-05-19 2014-W21-1 Military Hospital                          f          2
#>  5 2014-05-19 2014-W21-1 other                                      f          1
#>  6 2014-05-19 2014-W21-1 Princess Christian Maternity Hospital (PC… f          3
#>  7 2014-05-19 2014-W21-1 Rokupa Hospital                            f          1
#>  8 2014-05-19 2014-W21-1 <NA>                                       f          4
#>  9 2014-05-19 2014-W21-1 Connaught Hospital                         m          4
#> 10 2014-05-19 2014-W21-1 Military Hospital                          m          2
#> # … with 16 more rows
…
